module gitlab.com/jdmarble/lock-lube

go 1.19

require (
	go.uber.org/automaxprocs v1.5.1
	go.uber.org/zap v1.24.0
)

require (
	go.uber.org/atomic v1.7.0 // indirect
	go.uber.org/multierr v1.6.0 // indirect
)
